PCBNEW-LibModule-V1  2023-01-26 22:43:52
# encoding utf-8
Units mm
$INDEX
USB4125GFA0190
$EndINDEX
$MODULE USB4125GFA0190
Po 0 0 0 15 63d30228 00000000 ~~
Li USB4125GFA0190
Cd USB4125-GF-A-0190-2
Kw Connector
Sc 0
At STD
AR 
Op 0 0 0
T0 0.000 -0.303 1.27 1.27 0 0.254 N V 21 N "J**"
T1 0.000 -0.303 1.27 1.27 0 0.254 N I 21 N "USB4125GFA0190"
DS -4.47 -3.4 4.47 -3.4 0.1 24
DS 4.47 -3.4 4.47 3.4 0.1 24
DS 4.47 3.4 -4.47 3.4 0.1 24
DS -4.47 3.4 -4.47 -3.4 0.1 24
DS -6.325 -5.005 6.325 -5.005 0.1 24
DS 6.325 -5.005 6.325 4.4 0.1 24
DS 6.325 4.4 -6.325 4.4 0.1 24
DS -6.325 4.4 -6.325 -5.005 0.1 24
DS -4.47 2.2 -4.47 3.4 0.2 21
DS -4.47 3.4 4.47 3.4 0.2 21
DS 4.47 3.4 4.47 2.2 0.2 21
DS -0.5 -4.2 -0.5 -4.2 0.1 21
DS -0.5 -4.3 -0.5 -4.3 0.1 21
DA -0.5 -4.25 -0.500 -4.2 -1800 0.1 21
DA -0.5 -4.25 -0.500 -4.3 -1800 0.1 21
$PAD
Po -0.500 -3.08
Sh "A5" R 0.700 1.200 0 0 0
At SMD N 00888000
Ne 0 ""
$EndPAD
$PAD
Po 1.520 -3.08
Sh "A9" R 0.760 1.200 0 0 0
At SMD N 00888000
Ne 0 ""
$EndPAD
$PAD
Po 2.750 -3.08
Sh "A12" R 0.800 1.200 0 0 0
At SMD N 00888000
Ne 0 ""
$EndPAD
$PAD
Po 0.500 -3.08
Sh "B5" R 0.700 1.200 0 0 0
At SMD N 00888000
Ne 0 ""
$EndPAD
$PAD
Po -1.520 -3.08
Sh "B9" R 0.760 1.200 0 0 0
At SMD N 00888000
Ne 0 ""
$EndPAD
$PAD
Po -2.750 -3.08
Sh "B12" R 0.800 1.200 0 0 0
At SMD N 00888000
Ne 0 ""
$EndPAD
$PAD
Po -4.320 -3
Sh "MH1" C 2.010 2.010 0 0 900
Dr 1.34 0 0
At STD N 00E0FFFF
Ne 0 ""
$EndPAD
$PAD
Po -4.320 0.8
Sh "MH2" C 2.010 2.010 0 0 900
Dr 1.34 0 0
At STD N 00E0FFFF
Ne 0 ""
$EndPAD
$PAD
Po 4.320 0.8
Sh "MH3" C 2.010 2.010 0 0 900
Dr 1.34 0 0
At STD N 00E0FFFF
Ne 0 ""
$EndPAD
$PAD
Po 4.320 -3
Sh "MH4" C 2.010 2.010 0 0 900
Dr 1.34 0 0
At STD N 00E0FFFF
Ne 0 ""
$EndPAD
$EndMODULE USB4125GFA0190
$EndLIBRARY
