%TF.GenerationSoftware,KiCad,Pcbnew,6.0.8-f2edbf62ab~116~ubuntu20.04.1*%
%TF.CreationDate,2022-10-11T17:09:10-05:00*%
%TF.ProjectId,pokeball,706f6b65-6261-46c6-9c2e-6b696361645f,rev?*%
%TF.SameCoordinates,Original*%
%TF.FileFunction,Legend,Top*%
%TF.FilePolarity,Positive*%
%FSLAX46Y46*%
G04 Gerber Fmt 4.6, Leading zero omitted, Abs format (unit mm)*
G04 Created by KiCad (PCBNEW 6.0.8-f2edbf62ab~116~ubuntu20.04.1) date 2022-10-11 17:09:10*
%MOMM*%
%LPD*%
G01*
G04 APERTURE LIST*
%ADD10C,0.150000*%
%ADD11C,0.120000*%
G04 APERTURE END LIST*
D10*
X19177000Y-3175000D02*
X19177000Y-14732000D01*
X30607000Y-3175000D02*
X19177000Y-3175000D01*
X42037000Y-3302000D02*
X42037000Y-14732000D01*
X48432000Y-30099000D02*
G75*
G03*
X48432000Y-30099000I-17825000J0D01*
G01*
X49582000Y-29972000D02*
G75*
G03*
X49582000Y-29972000I-18975000J0D01*
G01*
%TO.C,U2*%
X37784380Y-16199904D02*
X38593904Y-16199904D01*
X38689142Y-16152285D01*
X38736761Y-16104666D01*
X38784380Y-16009428D01*
X38784380Y-15818952D01*
X38736761Y-15723714D01*
X38689142Y-15676095D01*
X38593904Y-15628476D01*
X37784380Y-15628476D01*
X37879619Y-15199904D02*
X37832000Y-15152285D01*
X37784380Y-15057047D01*
X37784380Y-14818952D01*
X37832000Y-14723714D01*
X37879619Y-14676095D01*
X37974857Y-14628476D01*
X38070095Y-14628476D01*
X38212952Y-14676095D01*
X38784380Y-15247523D01*
X38784380Y-14628476D01*
%TO.C,J5*%
X20104380Y-5032333D02*
X20818666Y-5032333D01*
X20961523Y-5079952D01*
X21056761Y-5175190D01*
X21104380Y-5318047D01*
X21104380Y-5413285D01*
X20104380Y-4079952D02*
X20104380Y-4556142D01*
X20580571Y-4603761D01*
X20532952Y-4556142D01*
X20485333Y-4460904D01*
X20485333Y-4222809D01*
X20532952Y-4127571D01*
X20580571Y-4079952D01*
X20675809Y-4032333D01*
X20913904Y-4032333D01*
X21009142Y-4079952D01*
X21056761Y-4127571D01*
X21104380Y-4222809D01*
X21104380Y-4460904D01*
X21056761Y-4556142D01*
X21009142Y-4603761D01*
%TO.C,SW1*%
X26813666Y-26986761D02*
X26956523Y-27034380D01*
X27194619Y-27034380D01*
X27289857Y-26986761D01*
X27337476Y-26939142D01*
X27385095Y-26843904D01*
X27385095Y-26748666D01*
X27337476Y-26653428D01*
X27289857Y-26605809D01*
X27194619Y-26558190D01*
X27004142Y-26510571D01*
X26908904Y-26462952D01*
X26861285Y-26415333D01*
X26813666Y-26320095D01*
X26813666Y-26224857D01*
X26861285Y-26129619D01*
X26908904Y-26082000D01*
X27004142Y-26034380D01*
X27242238Y-26034380D01*
X27385095Y-26082000D01*
X27718428Y-26034380D02*
X27956523Y-27034380D01*
X28147000Y-26320095D01*
X28337476Y-27034380D01*
X28575571Y-26034380D01*
X29480333Y-27034380D02*
X28908904Y-27034380D01*
X29194619Y-27034380D02*
X29194619Y-26034380D01*
X29099380Y-26177238D01*
X29004142Y-26272476D01*
X28908904Y-26320095D01*
%TO.C,R2*%
X14422333Y-30169380D02*
X14089000Y-29693190D01*
X13850904Y-30169380D02*
X13850904Y-29169380D01*
X14231857Y-29169380D01*
X14327095Y-29217000D01*
X14374714Y-29264619D01*
X14422333Y-29359857D01*
X14422333Y-29502714D01*
X14374714Y-29597952D01*
X14327095Y-29645571D01*
X14231857Y-29693190D01*
X13850904Y-29693190D01*
X14803285Y-29264619D02*
X14850904Y-29217000D01*
X14946142Y-29169380D01*
X15184238Y-29169380D01*
X15279476Y-29217000D01*
X15327095Y-29264619D01*
X15374714Y-29359857D01*
X15374714Y-29455095D01*
X15327095Y-29597952D01*
X14755666Y-30169380D01*
X15374714Y-30169380D01*
%TO.C,PS1*%
X37999380Y-34789285D02*
X36999380Y-34789285D01*
X36999380Y-34408333D01*
X37047000Y-34313095D01*
X37094619Y-34265476D01*
X37189857Y-34217857D01*
X37332714Y-34217857D01*
X37427952Y-34265476D01*
X37475571Y-34313095D01*
X37523190Y-34408333D01*
X37523190Y-34789285D01*
X37951761Y-33836904D02*
X37999380Y-33694047D01*
X37999380Y-33455952D01*
X37951761Y-33360714D01*
X37904142Y-33313095D01*
X37808904Y-33265476D01*
X37713666Y-33265476D01*
X37618428Y-33313095D01*
X37570809Y-33360714D01*
X37523190Y-33455952D01*
X37475571Y-33646428D01*
X37427952Y-33741666D01*
X37380333Y-33789285D01*
X37285095Y-33836904D01*
X37189857Y-33836904D01*
X37094619Y-33789285D01*
X37047000Y-33741666D01*
X36999380Y-33646428D01*
X36999380Y-33408333D01*
X37047000Y-33265476D01*
X37999380Y-32313095D02*
X37999380Y-32884523D01*
X37999380Y-32598809D02*
X36999380Y-32598809D01*
X37142238Y-32694047D01*
X37237476Y-32789285D01*
X37285095Y-32884523D01*
%TO.C,C5*%
X40460142Y-12507166D02*
X40507761Y-12554785D01*
X40555380Y-12697642D01*
X40555380Y-12792880D01*
X40507761Y-12935738D01*
X40412523Y-13030976D01*
X40317285Y-13078595D01*
X40126809Y-13126214D01*
X39983952Y-13126214D01*
X39793476Y-13078595D01*
X39698238Y-13030976D01*
X39603000Y-12935738D01*
X39555380Y-12792880D01*
X39555380Y-12697642D01*
X39603000Y-12554785D01*
X39650619Y-12507166D01*
X39555380Y-11602404D02*
X39555380Y-12078595D01*
X40031571Y-12126214D01*
X39983952Y-12078595D01*
X39936333Y-11983357D01*
X39936333Y-11745261D01*
X39983952Y-11650023D01*
X40031571Y-11602404D01*
X40126809Y-11554785D01*
X40364904Y-11554785D01*
X40460142Y-11602404D01*
X40507761Y-11650023D01*
X40555380Y-11745261D01*
X40555380Y-11983357D01*
X40507761Y-12078595D01*
X40460142Y-12126214D01*
%TO.C,C4*%
X9980142Y-19724666D02*
X10027761Y-19772285D01*
X10075380Y-19915142D01*
X10075380Y-20010380D01*
X10027761Y-20153238D01*
X9932523Y-20248476D01*
X9837285Y-20296095D01*
X9646809Y-20343714D01*
X9503952Y-20343714D01*
X9313476Y-20296095D01*
X9218238Y-20248476D01*
X9123000Y-20153238D01*
X9075380Y-20010380D01*
X9075380Y-19915142D01*
X9123000Y-19772285D01*
X9170619Y-19724666D01*
X9408714Y-18867523D02*
X10075380Y-18867523D01*
X9027761Y-19105619D02*
X9742047Y-19343714D01*
X9742047Y-18724666D01*
%TO.C,C3*%
X39375142Y-35621166D02*
X39422761Y-35668785D01*
X39470380Y-35811642D01*
X39470380Y-35906880D01*
X39422761Y-36049738D01*
X39327523Y-36144976D01*
X39232285Y-36192595D01*
X39041809Y-36240214D01*
X38898952Y-36240214D01*
X38708476Y-36192595D01*
X38613238Y-36144976D01*
X38518000Y-36049738D01*
X38470380Y-35906880D01*
X38470380Y-35811642D01*
X38518000Y-35668785D01*
X38565619Y-35621166D01*
X38470380Y-35287833D02*
X38470380Y-34668785D01*
X38851333Y-35002119D01*
X38851333Y-34859261D01*
X38898952Y-34764023D01*
X38946571Y-34716404D01*
X39041809Y-34668785D01*
X39279904Y-34668785D01*
X39375142Y-34716404D01*
X39422761Y-34764023D01*
X39470380Y-34859261D01*
X39470380Y-35144976D01*
X39422761Y-35240214D01*
X39375142Y-35287833D01*
%TO.C,C1*%
X8202142Y-31811166D02*
X8249761Y-31858785D01*
X8297380Y-32001642D01*
X8297380Y-32096880D01*
X8249761Y-32239738D01*
X8154523Y-32334976D01*
X8059285Y-32382595D01*
X7868809Y-32430214D01*
X7725952Y-32430214D01*
X7535476Y-32382595D01*
X7440238Y-32334976D01*
X7345000Y-32239738D01*
X7297380Y-32096880D01*
X7297380Y-32001642D01*
X7345000Y-31858785D01*
X7392619Y-31811166D01*
X8297380Y-30858785D02*
X8297380Y-31430214D01*
X8297380Y-31144500D02*
X7297380Y-31144500D01*
X7440238Y-31239738D01*
X7535476Y-31334976D01*
X7583095Y-31430214D01*
%TO.C,C7*%
X35888142Y-31557166D02*
X35935761Y-31604785D01*
X35983380Y-31747642D01*
X35983380Y-31842880D01*
X35935761Y-31985738D01*
X35840523Y-32080976D01*
X35745285Y-32128595D01*
X35554809Y-32176214D01*
X35411952Y-32176214D01*
X35221476Y-32128595D01*
X35126238Y-32080976D01*
X35031000Y-31985738D01*
X34983380Y-31842880D01*
X34983380Y-31747642D01*
X35031000Y-31604785D01*
X35078619Y-31557166D01*
X34983380Y-31223833D02*
X34983380Y-30557166D01*
X35983380Y-30985738D01*
%TO.C,J2*%
X27606666Y-48894380D02*
X27606666Y-49608666D01*
X27559047Y-49751523D01*
X27463809Y-49846761D01*
X27320952Y-49894380D01*
X27225714Y-49894380D01*
X28035238Y-48989619D02*
X28082857Y-48942000D01*
X28178095Y-48894380D01*
X28416190Y-48894380D01*
X28511428Y-48942000D01*
X28559047Y-48989619D01*
X28606666Y-49084857D01*
X28606666Y-49180095D01*
X28559047Y-49322952D01*
X27987619Y-49894380D01*
X28606666Y-49894380D01*
%TO.C,J4*%
X44454380Y-26114333D02*
X45168666Y-26114333D01*
X45311523Y-26161952D01*
X45406761Y-26257190D01*
X45454380Y-26400047D01*
X45454380Y-26495285D01*
X44787714Y-25209571D02*
X45454380Y-25209571D01*
X44406761Y-25447666D02*
X45121047Y-25685761D01*
X45121047Y-25066714D01*
%TO.C,C6*%
X42492142Y-12507166D02*
X42539761Y-12554785D01*
X42587380Y-12697642D01*
X42587380Y-12792880D01*
X42539761Y-12935738D01*
X42444523Y-13030976D01*
X42349285Y-13078595D01*
X42158809Y-13126214D01*
X42015952Y-13126214D01*
X41825476Y-13078595D01*
X41730238Y-13030976D01*
X41635000Y-12935738D01*
X41587380Y-12792880D01*
X41587380Y-12697642D01*
X41635000Y-12554785D01*
X41682619Y-12507166D01*
X41587380Y-11650023D02*
X41587380Y-11840500D01*
X41635000Y-11935738D01*
X41682619Y-11983357D01*
X41825476Y-12078595D01*
X42015952Y-12126214D01*
X42396904Y-12126214D01*
X42492142Y-12078595D01*
X42539761Y-12030976D01*
X42587380Y-11935738D01*
X42587380Y-11745261D01*
X42539761Y-11650023D01*
X42492142Y-11602404D01*
X42396904Y-11554785D01*
X42158809Y-11554785D01*
X42063571Y-11602404D01*
X42015952Y-11650023D01*
X41968333Y-11745261D01*
X41968333Y-11935738D01*
X42015952Y-12030976D01*
X42063571Y-12078595D01*
X42158809Y-12126214D01*
%TO.C,SW2*%
X2114261Y-23304333D02*
X2161880Y-23161476D01*
X2161880Y-22923380D01*
X2114261Y-22828142D01*
X2066642Y-22780523D01*
X1971404Y-22732904D01*
X1876166Y-22732904D01*
X1780928Y-22780523D01*
X1733309Y-22828142D01*
X1685690Y-22923380D01*
X1638071Y-23113857D01*
X1590452Y-23209095D01*
X1542833Y-23256714D01*
X1447595Y-23304333D01*
X1352357Y-23304333D01*
X1257119Y-23256714D01*
X1209500Y-23209095D01*
X1161880Y-23113857D01*
X1161880Y-22875761D01*
X1209500Y-22732904D01*
X1161880Y-22399571D02*
X2161880Y-22161476D01*
X1447595Y-21971000D01*
X2161880Y-21780523D01*
X1161880Y-21542428D01*
X1257119Y-21209095D02*
X1209500Y-21161476D01*
X1161880Y-21066238D01*
X1161880Y-20828142D01*
X1209500Y-20732904D01*
X1257119Y-20685285D01*
X1352357Y-20637666D01*
X1447595Y-20637666D01*
X1590452Y-20685285D01*
X2161880Y-21256714D01*
X2161880Y-20637666D01*
%TO.C,J3*%
X51863666Y-10472380D02*
X51863666Y-11186666D01*
X51816047Y-11329523D01*
X51720809Y-11424761D01*
X51577952Y-11472380D01*
X51482714Y-11472380D01*
X52244619Y-10472380D02*
X52863666Y-10472380D01*
X52530333Y-10853333D01*
X52673190Y-10853333D01*
X52768428Y-10900952D01*
X52816047Y-10948571D01*
X52863666Y-11043809D01*
X52863666Y-11281904D01*
X52816047Y-11377142D01*
X52768428Y-11424761D01*
X52673190Y-11472380D01*
X52387476Y-11472380D01*
X52292238Y-11424761D01*
X52244619Y-11377142D01*
%TO.C,C2*%
X30821333Y-54742142D02*
X30773714Y-54789761D01*
X30630857Y-54837380D01*
X30535619Y-54837380D01*
X30392761Y-54789761D01*
X30297523Y-54694523D01*
X30249904Y-54599285D01*
X30202285Y-54408809D01*
X30202285Y-54265952D01*
X30249904Y-54075476D01*
X30297523Y-53980238D01*
X30392761Y-53885000D01*
X30535619Y-53837380D01*
X30630857Y-53837380D01*
X30773714Y-53885000D01*
X30821333Y-53932619D01*
X31202285Y-53932619D02*
X31249904Y-53885000D01*
X31345142Y-53837380D01*
X31583238Y-53837380D01*
X31678476Y-53885000D01*
X31726095Y-53932619D01*
X31773714Y-54027857D01*
X31773714Y-54123095D01*
X31726095Y-54265952D01*
X31154666Y-54837380D01*
X31773714Y-54837380D01*
%TO.C,D1*%
X9562904Y-29949380D02*
X9562904Y-28949380D01*
X9801000Y-28949380D01*
X9943857Y-28997000D01*
X10039095Y-29092238D01*
X10086714Y-29187476D01*
X10134333Y-29377952D01*
X10134333Y-29520809D01*
X10086714Y-29711285D01*
X10039095Y-29806523D01*
X9943857Y-29901761D01*
X9801000Y-29949380D01*
X9562904Y-29949380D01*
X11086714Y-29949380D02*
X10515285Y-29949380D01*
X10801000Y-29949380D02*
X10801000Y-28949380D01*
X10705761Y-29092238D01*
X10610523Y-29187476D01*
X10515285Y-29235095D01*
%TO.C,U1*%
X13213595Y-33475380D02*
X13213595Y-34284904D01*
X13261214Y-34380142D01*
X13308833Y-34427761D01*
X13404071Y-34475380D01*
X13594547Y-34475380D01*
X13689785Y-34427761D01*
X13737404Y-34380142D01*
X13785023Y-34284904D01*
X13785023Y-33475380D01*
X14785023Y-34475380D02*
X14213595Y-34475380D01*
X14499309Y-34475380D02*
X14499309Y-33475380D01*
X14404071Y-33618238D01*
X14308833Y-33713476D01*
X14213595Y-33761095D01*
%TO.C,R1*%
X10136333Y-33854380D02*
X9803000Y-33378190D01*
X9564904Y-33854380D02*
X9564904Y-32854380D01*
X9945857Y-32854380D01*
X10041095Y-32902000D01*
X10088714Y-32949619D01*
X10136333Y-33044857D01*
X10136333Y-33187714D01*
X10088714Y-33282952D01*
X10041095Y-33330571D01*
X9945857Y-33378190D01*
X9564904Y-33378190D01*
X11088714Y-33854380D02*
X10517285Y-33854380D01*
X10803000Y-33854380D02*
X10803000Y-32854380D01*
X10707761Y-32997238D01*
X10612523Y-33092476D01*
X10517285Y-33140095D01*
%TO.C,J1*%
X7267380Y-30955333D02*
X7981666Y-30955333D01*
X8124523Y-31002952D01*
X8219761Y-31098190D01*
X8267380Y-31241047D01*
X8267380Y-31336285D01*
X8267380Y-29955333D02*
X8267380Y-30526761D01*
X8267380Y-30241047D02*
X7267380Y-30241047D01*
X7410238Y-30336285D01*
X7505476Y-30431523D01*
X7553095Y-30526761D01*
%TO.C,C8*%
X33720833Y-27506142D02*
X33673214Y-27553761D01*
X33530357Y-27601380D01*
X33435119Y-27601380D01*
X33292261Y-27553761D01*
X33197023Y-27458523D01*
X33149404Y-27363285D01*
X33101785Y-27172809D01*
X33101785Y-27029952D01*
X33149404Y-26839476D01*
X33197023Y-26744238D01*
X33292261Y-26649000D01*
X33435119Y-26601380D01*
X33530357Y-26601380D01*
X33673214Y-26649000D01*
X33720833Y-26696619D01*
X34292261Y-27029952D02*
X34197023Y-26982333D01*
X34149404Y-26934714D01*
X34101785Y-26839476D01*
X34101785Y-26791857D01*
X34149404Y-26696619D01*
X34197023Y-26649000D01*
X34292261Y-26601380D01*
X34482738Y-26601380D01*
X34577976Y-26649000D01*
X34625595Y-26696619D01*
X34673214Y-26791857D01*
X34673214Y-26839476D01*
X34625595Y-26934714D01*
X34577976Y-26982333D01*
X34482738Y-27029952D01*
X34292261Y-27029952D01*
X34197023Y-27077571D01*
X34149404Y-27125190D01*
X34101785Y-27220428D01*
X34101785Y-27410904D01*
X34149404Y-27506142D01*
X34197023Y-27553761D01*
X34292261Y-27601380D01*
X34482738Y-27601380D01*
X34577976Y-27553761D01*
X34625595Y-27506142D01*
X34673214Y-27410904D01*
X34673214Y-27220428D01*
X34625595Y-27125190D01*
X34577976Y-27077571D01*
X34482738Y-27029952D01*
%TO.C,R3*%
X42632333Y-14677380D02*
X42299000Y-14201190D01*
X42060904Y-14677380D02*
X42060904Y-13677380D01*
X42441857Y-13677380D01*
X42537095Y-13725000D01*
X42584714Y-13772619D01*
X42632333Y-13867857D01*
X42632333Y-14010714D01*
X42584714Y-14105952D01*
X42537095Y-14153571D01*
X42441857Y-14201190D01*
X42060904Y-14201190D01*
X42965666Y-13677380D02*
X43584714Y-13677380D01*
X43251380Y-14058333D01*
X43394238Y-14058333D01*
X43489476Y-14105952D01*
X43537095Y-14153571D01*
X43584714Y-14248809D01*
X43584714Y-14486904D01*
X43537095Y-14582142D01*
X43489476Y-14629761D01*
X43394238Y-14677380D01*
X43108523Y-14677380D01*
X43013285Y-14629761D01*
X42965666Y-14582142D01*
D11*
%TO.C,U2*%
X37217000Y-12678000D02*
X37217000Y-10988000D01*
X30072000Y-18198000D02*
X30347000Y-18198000D01*
X37492000Y-15438000D02*
X37492000Y-18198000D01*
X37492000Y-12678000D02*
X37217000Y-12678000D01*
X37492000Y-18198000D02*
X37217000Y-18198000D01*
X30072000Y-15438000D02*
X30072000Y-18198000D01*
X30072000Y-15438000D02*
X30072000Y-12678000D01*
X37492000Y-15438000D02*
X37492000Y-12678000D01*
X30072000Y-12678000D02*
X30347000Y-12678000D01*
%TO.C,J5*%
X22982000Y-6029000D02*
X21652000Y-6029000D01*
X24252000Y-6029000D02*
X39552000Y-6029000D01*
X24252000Y-6029000D02*
X24252000Y-3369000D01*
X21652000Y-6029000D02*
X21652000Y-4699000D01*
X39552000Y-6029000D02*
X39552000Y-3369000D01*
X24252000Y-3369000D02*
X39552000Y-3369000D01*
%TO.C,SW1*%
X25527000Y-40402000D02*
X35767000Y-40402000D01*
X25147000Y-30282000D02*
X25147000Y-27282000D01*
X25147000Y-27282000D02*
X28147000Y-27282000D01*
X35767000Y-27662000D02*
X35767000Y-40402000D01*
X25527000Y-27662000D02*
X35767000Y-27662000D01*
X25527000Y-27662000D02*
X25527000Y-40402000D01*
X35767000Y-27662000D02*
X35767000Y-40402000D01*
X25527000Y-27662000D02*
X25527000Y-40402000D01*
X25527000Y-40402000D02*
X35767000Y-40402000D01*
X25527000Y-27662000D02*
X35767000Y-27662000D01*
%TO.C,R2*%
X14816064Y-28802000D02*
X14361936Y-28802000D01*
X14816064Y-27332000D02*
X14361936Y-27332000D01*
%TO.C,PS1*%
X42057000Y-34475000D02*
X42057000Y-32675000D01*
X38837000Y-32675000D02*
X38837000Y-35125000D01*
%TO.C,C5*%
X41048000Y-12601752D02*
X41048000Y-12079248D01*
X42518000Y-12601752D02*
X42518000Y-12079248D01*
%TO.C,C4*%
X12038000Y-19819252D02*
X12038000Y-19296748D01*
X10568000Y-19819252D02*
X10568000Y-19296748D01*
%TO.C,C3*%
X38073000Y-35193248D02*
X38073000Y-35715752D01*
X36603000Y-35193248D02*
X36603000Y-35715752D01*
%TO.C,C1*%
X10260000Y-31905752D02*
X10260000Y-31383248D01*
X8790000Y-31905752D02*
X8790000Y-31383248D01*
%TO.C,C7*%
X36476000Y-31651752D02*
X36476000Y-31129248D01*
X37946000Y-31651752D02*
X37946000Y-31129248D01*
%TO.C,J2*%
X24940000Y-53142000D02*
X24940000Y-50142000D01*
X35560000Y-50522000D02*
X35560000Y-63262000D01*
X35560000Y-50522000D02*
X35560000Y-63262000D01*
X25320000Y-63262000D02*
X35560000Y-63262000D01*
X25320000Y-50522000D02*
X25320000Y-63262000D01*
X25320000Y-50522000D02*
X25320000Y-63262000D01*
X25320000Y-50522000D02*
X35560000Y-50522000D01*
X25320000Y-50522000D02*
X35560000Y-50522000D01*
X25320000Y-63262000D02*
X35560000Y-63262000D01*
X24940000Y-50142000D02*
X27940000Y-50142000D01*
%TO.C,J4*%
X26102000Y-24451000D02*
X26102000Y-27111000D01*
X41402000Y-27111000D02*
X26102000Y-27111000D01*
X41402000Y-24451000D02*
X41402000Y-27111000D01*
X44002000Y-24451000D02*
X44002000Y-25781000D01*
X41402000Y-24451000D02*
X26102000Y-24451000D01*
X42672000Y-24451000D02*
X44002000Y-24451000D01*
%TO.C,C6*%
X43080000Y-12601752D02*
X43080000Y-12079248D01*
X44550000Y-12601752D02*
X44550000Y-12079248D01*
%TO.C,SW2*%
X5409500Y-24971000D02*
X2409500Y-24971000D01*
X2789500Y-14351000D02*
X15529500Y-14351000D01*
X2789500Y-14351000D02*
X15529500Y-14351000D01*
X2789500Y-24591000D02*
X2789500Y-14351000D01*
X2409500Y-24971000D02*
X2409500Y-21971000D01*
X2789500Y-24591000D02*
X2789500Y-14351000D01*
X15529500Y-24591000D02*
X15529500Y-14351000D01*
X15529500Y-24591000D02*
X15529500Y-14351000D01*
X2789500Y-24591000D02*
X15529500Y-24591000D01*
X2789500Y-24591000D02*
X15529500Y-24591000D01*
%TO.C,J3*%
X50867000Y-14620000D02*
X50867000Y-19760000D01*
X53527000Y-14620000D02*
X53527000Y-19760000D01*
X50867000Y-12020000D02*
X52197000Y-12020000D01*
X50867000Y-13350000D02*
X50867000Y-12020000D01*
X50867000Y-14620000D02*
X53527000Y-14620000D01*
X50867000Y-19760000D02*
X53527000Y-19760000D01*
%TO.C,C2*%
X31249252Y-51970000D02*
X30726748Y-51970000D01*
X31249252Y-53440000D02*
X30726748Y-53440000D01*
%TO.C,D1*%
X9501000Y-28802000D02*
X11961000Y-28802000D01*
X11961000Y-27332000D02*
X9501000Y-27332000D01*
X11961000Y-28802000D02*
X11961000Y-27332000D01*
%TO.C,U1*%
X13975500Y-33183000D02*
X15775500Y-33183000D01*
X13975500Y-33183000D02*
X13175500Y-33183000D01*
X13975500Y-30063000D02*
X13175500Y-30063000D01*
X13975500Y-30063000D02*
X14775500Y-30063000D01*
%TO.C,R1*%
X10075936Y-35787000D02*
X10530064Y-35787000D01*
X10075936Y-34317000D02*
X10530064Y-34317000D01*
%TO.C,J1*%
X3995000Y-34382000D02*
X5975000Y-34382000D01*
X3995000Y-26862000D02*
X5975000Y-26862000D01*
X2025000Y-34382000D02*
X1625000Y-34382000D01*
X5975000Y-34382000D02*
X5975000Y-33962000D01*
X6205000Y-28862000D02*
X6655000Y-28862000D01*
X5975000Y-26862000D02*
X5975000Y-27282000D01*
X1625000Y-26862000D02*
X2025000Y-26862000D01*
X6655000Y-29312000D02*
X6655000Y-28862000D01*
%TO.C,C8*%
X33626248Y-28094000D02*
X34148752Y-28094000D01*
X33626248Y-29564000D02*
X34148752Y-29564000D01*
%TO.C,R3*%
X42571936Y-16610000D02*
X43026064Y-16610000D01*
X42571936Y-15140000D02*
X43026064Y-15140000D01*
%TD*%
M02*
